[
  {
    "name": "theme_info",
    "logo": "https:\/\/cdn.shopify.com\/s\/global\/branding\/shopify_logo_256x256.png",
    "settings": [
      {
        "type": "header",
        "content": "Brooklyn by Shopify"
      },
      {
        "type": "paragraph",
        "content": "Brooklyn is a tailor-made theme for the modern apparel store. Features include a mobile-first responsive design, unique typography, an edge-to-edge homepage hero, a dynamic product grid, and product pages with at-a-glance availability for each size."
      },
      {
        "type": "paragraph",
        "content": "This theme is fully supported by Shopify. For support and customizations, read the [theme documentation](https:\/\/docs.shopify.com\/manual\/more\/official-shopify-themes\/brooklyn) or contact [theme-support@shopify.com](mailto:theme-support@shopify.com?subject=[Brooklyn]+Theme+Support)."
      }
    ]
  },
  {
    "name": "Colors",
    "settings": [
      {
        "type": "header",
        "content": "General"
      },
      {
        "type": "color",
        "id": "color_body_bg",
        "label": "Background"
      },
      {
        "type": "color",
        "id": "color_body_text",
        "label": "Text",
        "default": "#333333"
      },
      {
        "type": "color",
        "id": "color_borders",
        "label": "Line color",
        "default": "#e5e5e5"
      },
      {
        "type": "color",
        "id": "color_primary",
        "label": "Buttons",
        "default": "#204a80"
      },
      {
        "type": "color",
        "id": "color_secondary",
        "label": "Links and accents",
        "default": "#dcdcdc"
      },
      {
        "type": "color",
        "id": "color_product_background",
        "label": "Product background"
      },
      {
        "type": "color",
        "id": "color_sale_tag",
        "label": "Sale tags"
      },
      {
        "type": "color",
        "id": "color_input",
        "label": "Form fields"
      },
      {
        "type": "color",
        "id": "color_newsletter",
        "label": "Newsletter and tables background",
        "default": "#f6f6f6"
      },
      {
        "type": "header",
        "content": "Drawers"
      },
      {
        "type": "color",
        "id": "color_drawer_background",
        "label": "Background",
        "default": "#1c1d1d"
      },
      {
        "type": "color",
        "id": "color_drawer_text",
        "label": "Text",
        "default": "#ffffff"
      },
      {
        "type": "color",
        "id": "color_drawer_border",
        "label": "Lines and borders",
        "default": "#373838"
      },
      {
        "type": "color",
        "id": "color_drawer_button",
        "label": "Buttons",
        "default": "#c7ac7e"
      },
      {
        "type": "color",
        "id": "color_drawer_button_text",
        "label": "Button text",
        "default": "#ffffff"
      }
    ]
  },
  {
    "name": "Typography",
    "settings": [
      {
        "type": "header",
        "content": "Headings"
      },
      {
        "type": "select",
        "id": "type_header_family",
        "label": "Font",
        "options": [
          {
            "value": "'Avant Garde', Avantgarde, 'Century Gothic', CenturyGothic, 'AppleGothic', sans-serif",
            "label": "Avant Garde",
            "group": "Sans-serif"
          },
          {
            "value": "'Gill Sans', 'Gill Sans MT', Calibri, sans-serif",
            "label": "Gill Sans",
            "group": "Sans-serif"
          },
          {
            "value": "'HelveticaNeue', 'Helvetica Neue', Helvetica, Arial, sans-serif",
            "label": "Helvetica Neue",
            "group": "Sans-serif"
          },
          {
            "value": "Arial, 'Helvetica Neue', Helvetica, sans-serif",
            "label": "Arial",
            "group": "Sans-serif"
          },
          {
            "value": "Candara, Calibri, Segoe, 'Segoe UI', Optima, Arial, sans-serif",
            "label": "Candara",
            "group": "Sans-serif"
          },
          {
            "value": "Geneva, Tahoma, Verdana, sans-serif",
            "label": "Geneva",
            "group": "Sans-serif"
          },
          {
            "value": "Google_Droid+Sans_400_sans",
            "label": "Droid Sans",
            "group": "Sans-serif | Google Web Fonts"
          },
          {
            "value": "Google_Droid+Sans_700_sans",
            "label": "Droid Sans Bold",
            "group": "Sans-serif | Google Web Fonts"
          },
          {
            "value": "Google_Lato_400_sans",
            "label": "Lato",
            "group": "Sans-serif | Google Web Fonts"
          },
          {
            "value": "Google_Lato_700_sans",
            "label": "Lato Bold",
            "group": "Sans-serif | Google Web Fonts"
          },
          {
            "value": "Google_Montserrat_400_sans",
            "label": "Montserrat",
            "group": "Sans-serif | Google Web Fonts"
          },
          {
            "value": "Google_Montserrat_700_sans",
            "label": "Montserrat Bold",
            "group": "Sans-serif | Google Web Fonts"
          },
          {
            "value": "Google_Open+Sans_400_sans",
            "label": "Open Sans",
            "group": "Sans-serif | Google Web Fonts"
          },
          {
            "value": "Google_Open+Sans_700_sans",
            "label": "Open Sans Bold",
            "group": "Sans-serif | Google Web Fonts"
          },
          {
            "value": "Google_PT+Sans_400_sans",
            "label": "PT Sans",
            "group": "Sans-serif | Google Web Fonts"
          },
          {
            "value": "Google_PT+Sans_700_sans",
            "label": "PT Sans Bold",
            "group": "Sans-serif | Google Web Fonts"
          },
          {
            "value": "Google_Roboto_400_sans",
            "label": "Roboto",
            "group": "Sans-serif | Google Web Fonts"
          },
          {
            "value": "Google_Roboto_700_sans",
            "label": "Roboto Bold",
            "group": "Sans-serif | Google Web Fonts"
          },
          {
            "value": "Google_Source+Sans+Pro_400_sans",
            "label": "Source Sans Pro",
            "group": "Sans-serif | Google Web Fonts"
          },
          {
            "value": "Google_Source+Sans+Pro_700_sans",
            "label": "Source Sans Pro Bold",
            "group": "Sans-serif | Google Web Fonts"
          },
          {
            "value": "Google_Ubuntu_400_sans",
            "label": "Ubuntu",
            "group": "Sans-serif | Google Web Fonts"
          },
          {
            "value": "Google_Ubuntu_700_sans",
            "label": "Ubuntu Bold",
            "group": "Sans-serif | Google Web Fonts"
          },
          {
            "value": "'Big Caslon', 'Book Antiqua', 'Palatino Linotype', Georgia, serif",
            "label": "Big Calson",
            "group": "Serif"
          },
          {
            "value": "'Calisto MT', 'Bookman Old Style', Bookman, 'Goudy Old Style', Garamond, 'Hoefler Text', 'Bitstream Charter', Georgia, serif",
            "label": "Calisto MT",
            "group": "Serif"
          },
          {
            "value": "Baskerville, 'Baskerville Old Face', 'Hoefler Text', Garamond, 'Times New Roman', serif",
            "label": "Baskerville",
            "group": "Serif"
          },
          {
            "value": "Garamond, Baskerville, 'Baskerville Old Face', 'Hoefler Text', 'Times New Roman', serif",
            "label": "Garamond",
            "group": "Serif"
          },
          {
            "value": "TimesNewRoman, 'Times New Roman', Times, Baskerville, Georgia, serif",
            "label": "Times New Roman",
            "group": "Serif"
          },
          {
            "value": "Google_Arvo_400_serif",
            "label": "Arvo",
            "group": "Serif | Google Web Fonts"
          },
          {
            "value": "Google_Arvo_700_serif",
            "label": "Arvo Bold",
            "group": "Serif | Google Web Fonts"
          },
          {
            "value": "Google_Crimson+Text_400_serif",
            "label": "Crimson Text",
            "group": "Serif | Google Web Fonts"
          },
          {
            "value": "Google_Crimson+Text_700_serif",
            "label": "Crimson Text Bold",
            "group": "Serif | Google Web Fonts"
          },
          {
            "value": "Google_Droid+Serif_400_serif",
            "label": "Droid Serif",
            "group": "Serif | Google Web Fonts"
          },
          {
            "value": "Google_Droid+Serif_700_serif",
            "label": "Droid Serif Bold",
            "group": "Serif | Google Web Fonts"
          },
          {
            "value": "Google_Lora_400_serif",
            "label": "Lora",
            "group": "Serif | Google Web Fonts"
          },
          {
            "value": "Google_Lora_700_serif",
            "label": "Lora Bold",
            "group": "Serif | Google Web Fonts"
          },
          {
            "value": "Google_Old+Standard+TT_400_serif",
            "label": "Old Standard",
            "group": "Serif | Google Web Fonts"
          },
          {
            "value": "Google_Old+Standard+TT_700_serif",
            "label": "Old Standard Bold",
            "group": "Serif | Google Web Fonts"
          },
          {
            "value": "Google_PT+Serif_400_serif",
            "label": "PT Serif",
            "group": "Serif | Google Web Fonts"
          },
          {
            "value": "Google_PT+Serif_700_serif",
            "label": "PT Serif Bold",
            "group": "Serif | Google Web Fonts"
          },
          {
            "value": "Google_Vollkorn_400_serif",
            "label": "Vollkorn",
            "group": "Serif | Google Web Fonts"
          },
          {
            "value": "Google_Vollkorn_700_serif",
            "label": "Vollkorn Bold",
            "group": "Serif | Google Web Fonts"
          }
        ]
      },
      {
        "type": "select",
        "id": "type_header_base_size",
        "label": "Base size",
        "options": [
          {
            "value": "26px",
            "label": "26px"
          },
          {
            "value": "28px",
            "label": "28px"
          },
          {
            "value": "30px",
            "label": "30px"
          },
          {
            "value": "32px",
            "label": "32px"
          },
          {
            "value": "34px",
            "label": "34px"
          }
        ]
      },
      {
        "type": "select",
        "id": "type_header_border_thickness",
        "label": "Underline thickness",
        "options": [
          {
            "value": "1px",
            "label": "Light"
          },
          {
            "value": "2px",
            "label": "Medium"
          },
          {
            "value": "3px",
            "label": "Bold"
          }
        ]
      },
      {
        "type": "header",
        "content": "Accent text",
        "info": "Menus, buttons, small headings"
      },
      {
        "type": "select",
        "id": "type_accent_family",
        "label": "Font",
        "options": [
          {
            "value": "'Avant Garde', Avantgarde, 'Century Gothic', CenturyGothic, 'AppleGothic', sans-serif",
            "label": "Avant Garde",
            "group": "Sans-serif"
          },
          {
            "value": "'Gill Sans', 'Gill Sans MT', Calibri, sans-serif",
            "label": "Gill Sans",
            "group": "Sans-serif"
          },
          {
            "value": "'HelveticaNeue', 'Helvetica Neue', Helvetica, Arial, sans-serif",
            "label": "Helvetica Neue",
            "group": "Sans-serif"
          },
          {
            "value": "Arial, 'Helvetica Neue', Helvetica, sans-serif",
            "label": "Arial",
            "group": "Sans-serif"
          },
          {
            "value": "Candara, Calibri, Segoe, 'Segoe UI', Optima, Arial, sans-serif",
            "label": "Candara",
            "group": "Sans-serif"
          },
          {
            "value": "Geneva, Tahoma, Verdana, sans-serif",
            "label": "Geneva",
            "group": "Sans-serif"
          },
          {
            "value": "Google_Droid+Sans_400_sans",
            "label": "Droid Sans",
            "group": "Sans-serif | Google Web Fonts"
          },
          {
            "value": "Google_Droid+Sans_700_sans",
            "label": "Droid Sans Bold",
            "group": "Sans-serif | Google Web Fonts"
          },
          {
            "value": "Google_Lato_400_sans",
            "label": "Lato",
            "group": "Sans-serif | Google Web Fonts"
          },
          {
            "value": "Google_Lato_700_sans",
            "label": "Lato Bold",
            "group": "Sans-serif | Google Web Fonts"
          },
          {
            "value": "Google_Montserrat_400_sans",
            "label": "Montserrat",
            "group": "Sans-serif | Google Web Fonts"
          },
          {
            "value": "Google_Montserrat_700_sans",
            "label": "Montserrat Bold",
            "group": "Sans-serif | Google Web Fonts"
          },
          {
            "value": "Google_Open+Sans_400_sans",
            "label": "Open Sans",
            "group": "Sans-serif | Google Web Fonts"
          },
          {
            "value": "Google_Open+Sans_700_sans",
            "label": "Open Sans Bold",
            "group": "Sans-serif | Google Web Fonts"
          },
          {
            "value": "Google_PT+Sans_400_sans",
            "label": "PT Sans",
            "group": "Sans-serif | Google Web Fonts"
          },
          {
            "value": "Google_PT+Sans_700_sans",
            "label": "PT Sans Bold",
            "group": "Sans-serif | Google Web Fonts"
          },
          {
            "value": "Google_Roboto_400_sans",
            "label": "Roboto",
            "group": "Sans-serif | Google Web Fonts"
          },
          {
            "value": "Google_Roboto_700_sans",
            "label": "Roboto Bold",
            "group": "Sans-serif | Google Web Fonts"
          },
          {
            "value": "Google_Source+Sans+Pro_400_sans",
            "label": "Source Sans Pro",
            "group": "Sans-serif | Google Web Fonts"
          },
          {
            "value": "Google_Source+Sans+Pro_700_sans",
            "label": "Source Sans Pro Bold",
            "group": "Sans-serif | Google Web Fonts"
          },
          {
            "value": "Google_Ubuntu_400_sans",
            "label": "Ubuntu",
            "group": "Sans-serif | Google Web Fonts"
          },
          {
            "value": "Google_Ubuntu_700_sans",
            "label": "Ubuntu Bold",
            "group": "Sans-serif | Google Web Fonts"
          },
          {
            "value": "'Big Caslon', 'Book Antiqua', 'Palatino Linotype', Georgia, serif",
            "label": "Big Calson",
            "group": "Serif"
          },
          {
            "value": "'Calisto MT', 'Bookman Old Style', Bookman, 'Goudy Old Style', Garamond, 'Hoefler Text', 'Bitstream Charter', Georgia, serif",
            "label": "Calisto MT",
            "group": "Serif"
          },
          {
            "value": "Baskerville, 'Baskerville Old Face', 'Hoefler Text', Garamond, 'Times New Roman', serif",
            "label": "Baskerville",
            "group": "Serif"
          },
          {
            "value": "Garamond, Baskerville, 'Baskerville Old Face', 'Hoefler Text', 'Times New Roman', serif",
            "label": "Garamond",
            "group": "Serif"
          },
          {
            "value": "Georgia, 'Hoefler Text', 'Times New Roman', serif",
            "label": "Georgia",
            "group": "Serif"
          },
          {
            "value": "TimesNewRoman, 'Times New Roman', Times, Baskerville, Georgia, serif",
            "label": "Times New Roman",
            "group": "Serif"
          },
          {
            "value": "Google_Arvo_400_serif",
            "label": "Arvo",
            "group": "Serif | Google Web Fonts"
          },
          {
            "value": "Google_Arvo_700_serif",
            "label": "Arvo Bold",
            "group": "Serif | Google Web Fonts"
          },
          {
            "value": "Google_Crimson+Text_400_serif",
            "label": "Crimson Text",
            "group": "Serif | Google Web Fonts"
          },
          {
            "value": "Google_Crimson+Text_700_serif",
            "label": "Crimson Text Bold",
            "group": "Serif | Google Web Fonts"
          },
          {
            "value": "Google_Droid+Serif_400_serif",
            "label": "Droid Serif",
            "group": "Serif | Google Web Fonts"
          },
          {
            "value": "Google_Droid+Serif_700_serif",
            "label": "Droid Serif Bold",
            "group": "Serif | Google Web Fonts"
          },
          {
            "value": "Google_Lora_400_serif",
            "label": "Lora",
            "group": "Serif | Google Web Fonts"
          },
          {
            "value": "Google_Lora_700_serif",
            "label": "Lora Bold",
            "group": "Serif | Google Web Fonts"
          },
          {
            "value": "Google_PT+Serif_400_serif",
            "label": "PT Serif",
            "group": "Serif | Google Web Fonts"
          },
          {
            "value": "Google_PT+Serif_700_serif",
            "label": "PT Serif Bold",
            "group": "Serif | Google Web Fonts"
          },
          {
            "value": "Google_Vollkorn_400_serif",
            "label": "Vollkorn",
            "group": "Serif | Google Web Fonts"
          },
          {
            "value": "Google_Vollkorn_700_serif",
            "label": "Vollkorn Bold",
            "group": "Serif | Google Web Fonts"
          }
        ]
      },
      {
        "type": "checkbox",
        "id": "type_accent_transform",
        "label": "Capitalize"
      },
      {
        "type": "checkbox",
        "id": "type_accent_spacing",
        "label": "Letter spacing"
      },
      {
        "type": "header",
        "content": "Body text"
      },
      {
        "type": "select",
        "id": "type_base_family",
        "label": "Font",
        "options": [
          {
            "value": "'Avant Garde', Avantgarde, 'Century Gothic', CenturyGothic, 'AppleGothic', sans-serif",
            "label": "Avant Garde",
            "group": "Sans-serif"
          },
          {
            "value": "'Gill Sans', 'Gill Sans MT', Calibri, sans-serif",
            "label": "Gill Sans",
            "group": "Sans-serif"
          },
          {
            "value": "'HelveticaNeue', 'Helvetica Neue', Helvetica, Arial, sans-serif",
            "label": "Helvetica Neue",
            "group": "Sans-serif"
          },
          {
            "value": "Arial, 'Helvetica Neue', Helvetica, sans-serif",
            "label": "Arial",
            "group": "Sans-serif"
          },
          {
            "value": "Candara, Calibri, Segoe, 'Segoe UI', Optima, Arial, sans-serif",
            "label": "Candara",
            "group": "Sans-serif"
          },
          {
            "value": "Geneva, Tahoma, Verdana, sans-serif",
            "label": "Geneva",
            "group": "Sans-serif"
          },
          {
            "value": "Google_Droid+Sans_400_sans",
            "label": "Droid Sans",
            "group": "Sans-serif | Google Web Fonts"
          },
          {
            "value": "Google_Droid+Sans_700_sans",
            "label": "Droid Sans Bold",
            "group": "Sans-serif | Google Web Fonts"
          },
          {
            "value": "Google_Lato_400_sans",
            "label": "Lato",
            "group": "Sans-serif | Google Web Fonts"
          },
          {
            "value": "Google_Lato_700_sans",
            "label": "Lato Bold",
            "group": "Sans-serif | Google Web Fonts"
          },
          {
            "value": "Google_Montserrat_400_sans",
            "label": "Montserrat",
            "group": "Sans-serif | Google Web Fonts"
          },
          {
            "value": "Google_Montserrat_700_sans",
            "label": "Montserrat Bold",
            "group": "Sans-serif | Google Web Fonts"
          },
          {
            "value": "Google_Open+Sans_400_sans",
            "label": "Open Sans",
            "group": "Sans-serif | Google Web Fonts"
          },
          {
            "value": "Google_Open+Sans_700_sans",
            "label": "Open Sans Bold",
            "group": "Sans-serif | Google Web Fonts"
          },
          {
            "value": "Google_PT+Sans_400_sans",
            "label": "PT Sans",
            "group": "Sans-serif | Google Web Fonts"
          },
          {
            "value": "Google_PT+Sans_700_sans",
            "label": "PT Sans Bold",
            "group": "Sans-serif | Google Web Fonts"
          },
          {
            "value": "Google_Roboto_400_sans",
            "label": "Roboto",
            "group": "Sans-serif | Google Web Fonts"
          },
          {
            "value": "Google_Roboto_700_sans",
            "label": "Roboto Bold",
            "group": "Sans-serif | Google Web Fonts"
          },
          {
            "value": "Google_Source+Sans+Pro_400_sans",
            "label": "Source Sans Pro",
            "group": "Sans-serif | Google Web Fonts"
          },
          {
            "value": "Google_Source+Sans+Pro_700_sans",
            "label": "Source Sans Pro Bold",
            "group": "Sans-serif | Google Web Fonts"
          },
          {
            "value": "Google_Ubuntu_400_sans",
            "label": "Ubuntu",
            "group": "Sans-serif | Google Web Fonts"
          },
          {
            "value": "Google_Ubuntu_700_sans",
            "label": "Ubuntu Bold",
            "group": "Sans-serif | Google Web Fonts"
          },
          {
            "value": "'Big Caslon', 'Book Antiqua', 'Palatino Linotype', Georgia, serif",
            "label": "Big Calson",
            "group": "Serif"
          },
          {
            "value": "'Calisto MT', 'Bookman Old Style', Bookman, 'Goudy Old Style', Garamond, 'Hoefler Text', 'Bitstream Charter', Georgia, serif",
            "label": "Calisto MT",
            "group": "Serif"
          },
          {
            "value": "Baskerville, 'Baskerville Old Face', 'Hoefler Text', Garamond, 'Times New Roman', serif",
            "label": "Baskerville",
            "group": "Serif"
          },
          {
            "value": "Garamond, Baskerville, 'Baskerville Old Face', 'Hoefler Text', 'Times New Roman', serif",
            "label": "Garamond",
            "group": "Serif"
          },
          {
            "value": "Georgia, 'Hoefler Text', 'Times New Roman', serif",
            "label": "Georgia",
            "group": "Serif"
          },
          {
            "value": "TimesNewRoman, 'Times New Roman', Times, Baskerville, Georgia, serif",
            "label": "Times New Roman",
            "group": "Serif"
          },
          {
            "value": "Google_Arapey_400_serif",
            "label": "Arapey",
            "group": "Serif | Google Web Fonts"
          },
          {
            "value": "Google_Arvo_400_serif",
            "label": "Arvo",
            "group": "Serif | Google Web Fonts"
          },
          {
            "value": "Google_Arvo_700_serif",
            "label": "Arvo Bold",
            "group": "Serif | Google Web Fonts"
          },
          {
            "value": "Google_Crimson+Text_400_serif",
            "label": "Crimson Text",
            "group": "Serif | Google Web Fonts"
          },
          {
            "value": "Google_Crimson+Text_700_serif",
            "label": "Crimson Text Bold",
            "group": "Serif | Google Web Fonts"
          },
          {
            "value": "Google_Droid+Serif_400_serif",
            "label": "Droid Serif",
            "group": "Serif | Google Web Fonts"
          },
          {
            "value": "Google_Droid+Serif_700_serif",
            "label": "Droid Serif Bold",
            "group": "Serif | Google Web Fonts"
          },
          {
            "value": "Google_Lora_400_serif",
            "label": "Lora",
            "group": "Serif | Google Web Fonts"
          },
          {
            "value": "Google_Lora_700_serif",
            "label": "Lora Bold",
            "group": "Serif | Google Web Fonts"
          },
          {
            "value": "Google_PT+Serif_400_serif",
            "label": "PT Serif",
            "group": "Serif | Google Web Fonts"
          },
          {
            "value": "Google_PT+Serif_700_serif",
            "label": "PT Serif Bold",
            "group": "Serif | Google Web Fonts"
          },
          {
            "value": "Google_Vollkorn_400_serif",
            "label": "Vollkorn",
            "group": "Serif | Google Web Fonts"
          },
          {
            "value": "Google_Vollkorn_700_serif",
            "label": "Vollkorn Bold",
            "group": "Serif | Google Web Fonts"
          }
        ]
      },
      {
        "type": "select",
        "id": "type_base_size",
        "label": "Base size",
        "options": [
          {
            "value": "14px",
            "label": "14px"
          },
          {
            "value": "15px",
            "label": "15px"
          },
          {
            "value": "16px",
            "label": "16px"
          },
          {
            "value": "17px",
            "label": "17px"
          }
        ]
      },
      {
        "type": "checkbox",
        "id": "type_base_italize_titles",
        "label": "Italicize titles, blockquotes, drop-down links, comment author name, and dates."
      }
    ]
  },
  {
    "name": "Promo Code",
    "settings": [
      {
        "type": "header",
        "content": "Header Promo Code"
      },
      {
        "type": "checkbox",
        "id": "promo_code_header_enable",
        "label": "Enable the Promo Code In the Header",
        "default": false,
        "info": "HINT: Create the promo code first before showing it here or else it will not work for your customers."
      },
      {
        "type": "text",
        "id": "promo_code_header_text",
        "label": "Promo Code Description",
        "default": "Use this code for 50% off!",
        "info": "This is the description in the header that describes what the promo code will be used for."
      },
      {
        "type": "text",
        "id": "promo_code_header_code",
        "label": "Promo Code",
        "info": "Once you create the promo code, paste it here."
      }
    ]
  },
  {
    "name": "Header",
    "settings": [
      {
        "type": "header",
        "content": "Logo"
      },
      {
        "type": "checkbox",
        "id": "logo_use_image",
        "label": "Use a custom logo"
      },
      {
        "type": "image",
        "id": "logo.png",
        "label": "Logo image",
        "max-width": 450,
        "max-height": 200,
        "info": "450px wide recommended"
      },
      {
        "type": "checkbox",
        "id": "logo_use_inverted",
        "label": "Use an inverted logo"
      },
      {
        "type": "image",
        "id": "logo-inverted.png",
        "label": "Inverted logo",
        "max-width": 450,
        "max-height": 200,
        "info": "Use this with dark slideshow images for better visibility"
      },
      {
        "type": "text",
        "id": "logo_max_width",
        "label": "Custom logo width (in pixels)"
      },
      {
        "type": "header",
        "content": "Favicon"
      },
      {
        "type": "checkbox",
        "id": "favicon_enable",
        "label": "Use a custom icon"
      },
      {
        "type": "image",
        "id": "favicon.png",
        "label": "Icon",
        "max-width": 16,
        "max-height": 16,
        "info": "16 x 16px .png required"
      }
    ]
  },
  {
    "name": "Home page",
    "settings": [
      {
        "type": "header",
        "content": "Sections"
      },
      {
        "type": "paragraph",
        "content": "Choose your home page sections and their order."
      },
      {
        "type": "select",
        "id": "home_section_1",
        "options": [
          {
            "value": "",
            "label": "(none)"
          },
          {
            "value": "hero",
            "label": "Hero slideshow"
          },
          {
            "value": "featured-products",
            "label": "Featured products"
          },
          {
            "value": "featured-collections",
            "label": "Featured collections"
          },
          {
            "value": "home-content",
            "label": "Featured content"
          }
        ]
      },
      {
        "type": "select",
        "id": "home_section_2",
        "options": [
          {
            "value": "",
            "label": "(none)"
          },
          {
            "value": "hero",
            "label": "Hero slideshow"
          },
          {
            "value": "featured-products",
            "label": "Featured products"
          },
          {
            "value": "featured-collections",
            "label": "Featured collections"
          },
          {
            "value": "home-content",
            "label": "Featured content"
          }
        ]
      },
      {
        "type": "select",
        "id": "home_section_3",
        "options": [
          {
            "value": "",
            "label": "(none)"
          },
          {
            "value": "hero",
            "label": "Hero slideshow"
          },
          {
            "value": "featured-products",
            "label": "Featured products"
          },
          {
            "value": "featured-collections",
            "label": "Featured collections"
          },
          {
            "value": "home-content",
            "label": "Featured Content"
          }
        ]
      },
      {
        "type": "select",
        "id": "home_section_4",
        "options": [
          {
            "value": "",
            "label": "(none)"
          },
          {
            "value": "hero",
            "label": "Hero slideshow"
          },
          {
            "value": "featured-products",
            "label": "Featured products"
          },
          {
            "value": "featured-collections",
            "label": "Featured collections"
          },
          {
            "value": "home-content",
            "label": "Featured Content"
          }
        ]
      },
      {
        "type": "paragraph",
        "content": "Each section can only be used once on the home page."
      }
    ]
  },
  {
    "name": "Home page - hero slideshow",
    "settings": [
      {
        "type": "paragraph",
        "content": "Turn the hero slideshow on and off from the home page section."
      },
      {
        "type": "checkbox",
        "id": "hero_home_auto",
        "label": "Auto rotate between slides"
      },
      {
        "type": "select",
        "id": "home_hero_auto_speed",
        "label": "Rotation interval",
        "options": [
          {
            "value": "5000",
            "label": "5 seconds"
          },
          {
            "value": "7000",
            "label": "7 seconds"
          },
          {
            "value": "10000",
            "label": "10 seconds"
          }
        ]
      },
      {
        "type": "header",
        "content": "Slide 1"
      },
      {
        "type": "checkbox",
        "id": "hero_slide_1_enable",
        "label": "Enable slide 1"
      },
      {
        "type": "image",
        "id": "hero_slide_1.jpg",
        "label": "Image",
        "max-width": 1200,
        "info": "1200px wide required"
      },
      {
        "type": "select",
        "id": "hero_slide_1_text_color",
        "label": "Text color",
        "options": [
          {
            "value": "is-light",
            "label": "Light"
          },
          {
            "value": "is-dark",
            "label": "Dark"
          }
        ]
      },
      {
        "type": "text",
        "id": "hero_slide_1_subheading",
        "label": "Subheading text"
      },
      {
        "type": "text",
        "id": "hero_slide_1_heading",
        "label": "Heading text"
      },
      {
        "type": "text",
        "id": "hero_slide_1_cta",
        "label": "Button text"
      },
      {
        "type": "text",
        "id": "hero_slide_1_link",
        "label": "Link URL"
      },
      {
        "type": "header",
        "content": "Slide 2"
      },
      {
        "type": "checkbox",
        "id": "hero_slide_2_enable",
        "label": "Enable slide 2"
      },
      {
        "type": "image",
        "id": "hero_slide_2.jpg",
        "label": "Image",
        "max-width": 1200,
        "info": "1200px wide required"
      },
      {
        "type": "select",
        "id": "hero_slide_2_text_color",
        "label": "Text color",
        "options": [
          {
            "value": "is-light",
            "label": "Light"
          },
          {
            "value": "is-dark",
            "label": "Dark"
          }
        ]
      },
      {
        "type": "text",
        "id": "hero_slide_2_subheading",
        "label": "Subheading text"
      },
      {
        "type": "text",
        "id": "hero_slide_2_heading",
        "label": "Heading text"
      },
      {
        "type": "text",
        "id": "hero_slide_2_cta",
        "label": "Button text"
      },
      {
        "type": "text",
        "id": "hero_slide_2_link",
        "label": "Link URL"
      },
      {
        "type": "header",
        "content": "Slide 3"
      },
      {
        "type": "checkbox",
        "id": "hero_slide_3_enable",
        "label": "Enable slide 3"
      },
      {
        "type": "image",
        "id": "hero_slide_3.jpg",
        "label": "Image",
        "max-width": 1200,
        "info": "1200px wide required"
      },
      {
        "type": "select",
        "id": "hero_slide_3_text_color",
        "label": "Text color",
        "options": [
          {
            "value": "is-light",
            "label": "Light"
          },
          {
            "value": "is-dark",
            "label": "Dark"
          }
        ]
      },
      {
        "type": "text",
        "id": "hero_slide_3_subheading",
        "label": "Subheading text"
      },
      {
        "type": "text",
        "id": "hero_slide_3_heading",
        "label": "Heading text"
      },
      {
        "type": "text",
        "id": "hero_slide_3_cta",
        "label": "Button text"
      },
      {
        "type": "text",
        "id": "hero_slide_3_link",
        "label": "Link URL"
      },
      {
        "type": "header",
        "content": "Slide 4"
      },
      {
        "type": "checkbox",
        "id": "hero_slide_4_enable",
        "label": "Enable slide 4"
      },
      {
        "type": "image",
        "id": "hero_slide_4.jpg",
        "label": "Image",
        "max-width": 1200,
        "info": "1200px wide required"
      },
      {
        "type": "select",
        "id": "hero_slide_4_text_color",
        "label": "Text color",
        "options": [
          {
            "value": "is-light",
            "label": "Light"
          },
          {
            "value": "is-dark",
            "label": "Dark"
          }
        ]
      },
      {
        "type": "text",
        "id": "hero_slide_4_subheading",
        "label": "Subheading text"
      },
      {
        "type": "text",
        "id": "hero_slide_4_heading",
        "label": "Heading text"
      },
      {
        "type": "text",
        "id": "hero_slide_4_cta",
        "label": "Button text"
      },
      {
        "type": "text",
        "id": "hero_slide_4_link",
        "label": "Link URL"
      },
      {
        "type": "header",
        "content": "Slide 5"
      },
      {
        "type": "checkbox",
        "id": "hero_slide_5_enable",
        "label": "Enable slide 5"
      },
      {
        "type": "image",
        "id": "hero_slide_5.jpg",
        "label": "Image",
        "max-width": 1200,
        "info": "1200px wide required"
      },
      {
        "type": "select",
        "id": "hero_slide_5_text_color",
        "label": "Text color",
        "options": [
          {
            "value": "is-light",
            "label": "Light"
          },
          {
            "value": "is-dark",
            "label": "Dark"
          }
        ]
      },
      {
        "type": "text",
        "id": "hero_slide_5_subheading",
        "label": "Subheading text"
      },
      {
        "type": "text",
        "id": "hero_slide_5_heading",
        "label": "Heading text"
      },
      {
        "type": "text",
        "id": "hero_slide_5_cta",
        "label": "Button text"
      },
      {
        "type": "text",
        "id": "hero_slide_5_link",
        "label": "Link URL"
      }
    ]
  },
  {
    "name": "Home page - featured collections",
    "settings": [
      {
        "type": "radio",
        "id": "home_featured_collections_sort",
        "label": "Choose collections",
        "options": [
          {
            "value": "auto",
            "label": "Automatically (up to 9)"
          },
          {
            "value": "manual",
            "label": "Manually:"
          }
        ]
      },
      {
        "type": "collection",
        "id": "collection_1"
      },
      {
        "type": "collection",
        "id": "collection_2"
      },
      {
        "type": "collection",
        "id": "collection_3"
      },
      {
        "type": "collection",
        "id": "collection_4"
      },
      {
        "type": "collection",
        "id": "collection_5"
      },
      {
        "type": "collection",
        "id": "collection_6"
      },
      {
        "type": "collection",
        "id": "collection_7"
      },
      {
        "type": "collection",
        "id": "collection_8"
      },
      {
        "type": "collection",
        "id": "collection_9"
      }
    ]
  },
  {
    "name": "Home page - featured products",
    "settings": [
      {
        "type": "collection",
        "id": "home_featured_products",
        "label": "Choose collection"
      }
    ]
  },
  {
    "name": "Home page - image sections",
    "settings": [
      {
        "type": "paragraph",
        "content": "Upload your images and text to display on the homepage."
      },
      {
        "type": "header",
        "content": "Section 1"
      },
      {
        "type": "checkbox",
        "id": "home_image_section_1_enable",
        "label": "Enable Home Section 1"
      },
      {
        "type": "image",
        "id": "home_image_section_1.jpg",
        "label": "Home Image Section 1",
        "max-width": 800,
        "info": "800px wide required"
      },
      {
        "type": "text",
        "id": "home_image_section_1_heading",
        "label": "Heading Text"
      },
      {
        "type": "text",
        "id": "home_image_section_1_subheading",
        "label": "Subheading Text"
      },
      {
        "type": "text",
        "id": "home_image_section_1_button_text",
        "label": "Button Text"
      },
      {
        "type": "text",
        "id": "home_image_section_1_button_link",
        "label": "Button Link"
      },
      {
        "type": "header",
        "content": "Section 2"
      },
      {
        "type": "checkbox",
        "id": "home_image_section_2_enable",
        "label": "Enable Home Section 2"
      },
      {
        "type": "image",
        "id": "home_image_section_2.jpg",
        "label": "Image",
        "max-width": 800,
        "info": "800px wide required"
      },
      {
        "type": "text",
        "id": "home_image_section_2_heading",
        "label": "Heading Text"
      },
      {
        "type": "text",
        "id": "home_image_section_2_subheading",
        "label": "Subheading Text"
      },
      {
        "type": "text",
        "id": "home_image_section_2_button_text",
        "label": "Button Text"
      },
      {
        "type": "text",
        "id": "home_image_section_2_button_link",
        "label": "Button Link"
      },
      {
        "type": "header",
        "content": "Section 3"
      },
      {
        "type": "checkbox",
        "id": "home_image_section_3_enable",
        "label": "Enable Home Section 3"
      },
      {
        "type": "image",
        "id": "home_image_section_3.jpg",
        "label": "Image",
        "max-width": 800,
        "info": "800px wide required"
      },
      {
        "type": "text",
        "id": "home_image_section_3_heading",
        "label": "Heading Text"
      },
      {
        "type": "text",
        "id": "home_image_section_3_subheading",
        "label": "Subheading Text"
      },
      {
        "type": "text",
        "id": "home_image_section_3_button_text",
        "label": "Button Text"
      },
      {
        "type": "text",
        "id": "home_image_section_3_button_link",
        "label": "Button Link"
      },
      {
        "type": "header",
        "content": "Section 4"
      },
      {
        "type": "checkbox",
        "id": "home_image_section_4_enable",
        "label": "Enable Home Section 4"
      },
      {
        "type": "image",
        "id": "home_image_section_4.jpg",
        "label": "Image",
        "max-width": 800,
        "info": "800px wide required"
      },
      {
        "type": "text",
        "id": "home_image_section_4_heading",
        "label": "Heading Text"
      },
      {
        "type": "text",
        "id": "home_image_section_4_subheading",
        "label": "Subheading Text"
      },
      {
        "type": "text",
        "id": "home_image_section_4_button_text",
        "label": "Button Text"
      },
      {
        "type": "text",
        "id": "home_image_section_4_button_link",
        "label": "Button Link"
      }
    ]
  },
  {
    "name": "Home page - featured content",
    "settings": [
      {
        "type": "page",
        "id": "home_page_content",
        "label": "Choose page"
      }
    ]
  },
  {
    "name": "Product page",
    "settings": [
      {
        "type": "checkbox",
        "id": "product_zoom_enable",
        "label": "Enable image zoom"
      },
      {
        "type": "checkbox",
        "id": "disable_lense_form_on_tagged_products",
        "label": "Disable lense form on products with tag: no lenses"
      }
    ]
  },
  {
    "name": "All Collections page - Banner Image",
    "settings": [
      {
        "type": "text",
        "id": "list_collection_title",
        "label": "The title of the List Collections page"
      },
      {
        "type": "header",
        "content": "Banner Image"
      },
      {
        "type": "paragraph",
        "content": "Upload your banner image to display on the List Collections page."
      },
      {
        "type": "checkbox",
        "id": "list_collection_banner_enable",
        "label": "Enable Banner Image"
      },
      {
        "type": "image",
        "id": "list_collection_banner.jpg",
        "label": "Banner Image",
        "max-width": 2000,
        "info": "1500px by 300px is recommended"
      }
    ]
  },
  {
    "name": "Collection page",
    "settings": [
      {
        "type": "select",
        "id": "collection_products_grid",
        "label": "Grid style",
        "options": [
          {
            "value": "collage",
            "label": "Collage"
          },
          {
            "value": "grid",
            "label": "Grid"
          }
        ]
      },
      {
        "type": "checkbox",
        "id": "collection_tags_enable",
        "label": "Show collection tags"
      },
      {
        "type": "checkbox",
        "id": "product_vendor_enable",
        "label": "Show product vendor"
      },
      {
        "type": "checkbox",
        "id": "mens-frames-collection_banner_enable",
        "label": "Enable Mens Frames Banner Image"
      },
      {
        "type": "image",
        "id": "mens-frames-collection_banner.jpg",
        "label": "Mens Frames Banner Image",
        "max-width": 2000,
        "info": "1500px by 300px is recommended"
      },
      {
        "type": "checkbox",
        "id": "mens-sunwear-collection_banner_enable",
        "label": "Enable Mens Sunwear Banner Image"
      },
      {
        "type": "image",
        "id": "mens-sunwear-collection_banner.jpg",
        "label": "Mens Sunwear Banner Image",
        "max-width": 2000,
        "info": "1500px by 300px is recommended"
      },
      {
        "type": "checkbox",
        "id": "womens-frames-collection_banner_enable",
        "label": "Enable Womens Frames Banner Image"
      },
      {
        "type": "image",
        "id": "womens-frames-collection_banner.jpg",
        "label": "Womens Frames Banner Image",
        "max-width": 2000,
        "info": "1500px by 300px is recommended"
      },
      {
        "type": "checkbox",
        "id": "womens-sunwear-collection_banner_enable",
        "label": "Enable Womens Sunwear Banner Image"
      },
      {
        "type": "image",
        "id": "womens-sunwear-collection_banner.jpg",
        "label": "Womens Sunwear Banner Image",
        "max-width": 2000,
        "info": "1500px by 300px is recommended"
      },
      {
        "type": "checkbox",
        "id": "philly-eye-works-collection_banner_enable",
        "label": "Enable Philly Eye Works Banner Image"
      },
      {
        "type": "image",
        "id": "philly-eye-works-collection_banner.jpg",
        "label": "Philly Eye Works Banner Image",
        "max-width": 2000,
        "info": "1500px by 300px is recommended"
      },
      {
        "type": "checkbox",
        "id": "philly-eye-works-sunwear-collection_banner_enable",
        "label": "Enable Philly Eye Works Sunwear Banner Image"
      },
      {
        "type": "image",
        "id": "philly-eye-works-sunwear-collection_banner.jpg",
        "label": "Philly Eye Works Sunwear Banner Image",
        "max-width": 2000,
        "info": "1500px by 300px is recommended"
      }
    ]
  },
  {
    "name": "About Page - Banner Image",
    "settings": [
      {
        "type": "header",
        "content": "Banner Image"
      },
      {
        "type": "paragraph",
        "content": "Upload your banner image to display on the About page."
      },
      {
        "type": "checkbox",
        "id": "about_banner_enable",
        "label": "Enable Banner Image"
      },
      {
        "type": "image",
        "id": "about_banner.jpg",
        "label": "Banner Image",
        "max-width": 2000,
        "info": "1500px by 300px is recommended"
      }
    ]
  },
  {
    "name": "Eye Care Specialists Page",
    "settings": [
      {
        "type": "header",
        "content": "Banner Image"
      },
      {
        "type": "paragraph",
        "content": "Upload your banner image to display on the Eye Care Specialists page."
      },
      {
        "type": "checkbox",
        "id": "ecs_banner_enable",
        "label": "Enable Banner Image"
      },
      {
        "type": "image",
        "id": "ecs_banner.jpg",
        "label": "Banner Image",
        "max-width": 2000,
        "info": "1500px by 300px is recommended"
      },
      {
        "type": "textarea",
        "id": "ecs_description",
        "label": "Page Content"
      },
      {
        "type": "image",
        "id": "ecs_section_1_image_1.jpg",
        "label": "Section 1 Image 1",
        "max-width": 800,
        "info": "800px by 800px is recommended"
      },
      {
        "type": "image",
        "id": "ecs_section_1_image_2.jpg",
        "label": "Section 1 Image 2",
        "max-width": 800,
        "info": "800px by 800px is recommended"
      },
      {
        "type": "text",
        "id": "ecs_fact_title_1",
        "label": "Fact 1 Title"
      },
      {
        "type": "textarea",
        "id": "ecs_fact_description_1",
        "label": "Fact 1 Description"
      },
      {
        "type": "text",
        "id": "ecs_fact_title_2",
        "label": "Fact 2 Title"
      },
      {
        "type": "textarea",
        "id": "ecs_fact_description_2",
        "label": "Fact 2 Description"
      },
      {
        "type": "text",
        "id": "ecs_fact_title_3",
        "label": "Fact 3 Title"
      },
      {
        "type": "textarea",
        "id": "ecs_fact_description_3",
        "label": "Fact 3 Description"
      }
    ]
  },
  {
    "name": "Philly Eye Works Page",
    "settings": [
      {
        "type": "header",
        "content": "Banner Image"
      },
      {
        "type": "paragraph",
        "content": "Upload your banner image to display on the Philly Eye Works page."
      },
      {
        "type": "checkbox",
        "id": "pew_banner_enable",
        "label": "Enable Banner Image"
      },
      {
        "type": "image",
        "id": "pew_banner.jpg",
        "label": "Banner Image",
        "max-width": 2000,
        "info": "1500px by 300px is recommended"
      },
      {
        "type": "header",
        "content": "Shop Description and Button"
      },
      {
        "type": "textarea",
        "id": "philly_eyeworks_description_section_1",
        "label": "Description Section 1"
      },
      {
        "type": "checkbox",
        "id": "pew_button_enable",
        "label": "Enable Button"
      },
      {
        "type": "text",
        "id": "pew_button_text",
        "label": "Button Text"
      },
      {
        "type": "text",
        "id": "pew_button_link",
        "label": "Button Link"
      },
      {
        "type": "header",
        "content": "Create Your Own Section"
      },
      {
        "type": "checkbox",
        "id": "pew_eyeworks_create_your_own_section_enable",
        "label": "Enable Button"
      },
      {
        "type": "text",
        "id": "pew_create_number_1",
        "label": "Number"
      },
      {
        "type": "text",
        "id": "pew_create_title_1",
        "label": "Title"
      },
      {
        "type": "text",
        "id": "pew_create_number_2",
        "label": "Number"
      },
      {
        "type": "text",
        "id": "pew_create_title_2",
        "label": "Title"
      },
      {
        "type": "text",
        "id": "pew_create_number_3",
        "label": "Number"
      },
      {
        "type": "text",
        "id": "pew_create_title_3",
        "label": "Title"
      },
      {
        "type": "text",
        "id": "pew_create_number_4",
        "label": "Number"
      },
      {
        "type": "text",
        "id": "pew_create_title_4",
        "label": "Title"
      },
      {
        "type": "checkbox",
        "id": "pew_eyeworks_section_images_enable",
        "label": "Enable Button"
      },
      {
        "type": "image",
        "id": "philly_eyeworks_section_1_image_1.jpg",
        "label": "Section 1 Image 1",
        "max-width": 800,
        "info": "800px by 800px is recommended"
      },
      {
        "type": "image",
        "id": "philly_eyeworks_section_1_image_2.jpg",
        "label": "Section 1 Image 2",
        "max-width": 800,
        "info": "800px by 800px is recommended"
      },
      {
        "type": "image",
        "id": "philly_eyeworks_glasses_image.jpg",
        "label": "Glasses Image",
        "max-width": 1800,
        "info": "1800px by 500px is recommended"
      },
      {
        "type": "image",
        "id": "philly_eyeworks_section_2_image_1.jpg",
        "label": "Section 2 Image",
        "max-width": 1500,
        "info": "1500px by 600px is recommended"
      },
      {
        "type": "textarea",
        "id": "philly_eyeworks_description_section_2",
        "label": "Description Section 2"
      }
    ]
  },
  {
    "name": "Philly EyeWorks Series Page",
    "settings": [
      {
        "type": "image",
        "id": "philly_eyeworks_series_hero_image.jpg",
        "label": "Hero Image",
        "max-width": 2000,
        "info": "1700px by 600px is recommended"
      },
      {
        "type": "text",
        "id": "philly_eyeworks_series_title",
        "label": "Title"
      },
      {
        "type": "textarea",
        "id": "philly_eyeworks_series_title_description",
        "label": "Title Description"
      },
      {
        "type": "image",
        "id": "philly_eyeworks_series_section_1_image_1.jpg",
        "label": "Section 1 Image 1",
        "max-width": 800,
        "info": "800px by 800px is recommended"
      },
      {
        "type": "image",
        "id": "philly_eyeworks_series_section_1_image_2.jpg",
        "label": "Section 1 Image 2",
        "max-width": 800,
        "info": "800px by 800px is recommended"
      },
      {
        "type": "image",
        "id": "philly_eyeworks_series_glasses_image.jpg",
        "label": "Glasses Image",
        "max-width": 1800,
        "info": "1800px by 500px is recommended"
      },
      {
        "type": "text",
        "id": "philly_eyeworks_series_callout_1_title",
        "label": "Callout Section 1 Title"
      },
      {
        "type": "text",
        "id": "philly_eyeworks_series_callout_1_button_text",
        "label": "Callout Section 1 Button"
      },
      {
        "type": "text",
        "id": "philly_eyeworks_series_callout_1_button_url",
        "label": "Callout Section 1 URL"
      },
      {
        "type": "image",
        "id": "philly_eyeworks_series_section_2_image_1.jpg",
        "label": "Section 2 Image",
        "max-width": 1500,
        "info": "1500px by 600px is recommended"
      },
      {
        "type": "image",
        "id": "philly_eyeworks_series_section_3_image_1.jpg",
        "label": "Section 3 Image",
        "max-width": 1700,
        "info": "1700px by 600px is recommended"
      },
      {
        "type": "text",
        "id": "philly_eyeworks_section_4_title",
        "label": "Section 4 Title"
      },
      {
        "type": "textarea",
        "id": "philly_eyeworks_section_4_description",
        "label": "Section 4 Description"
      },
      {
        "type": "image",
        "id": "philly_eyeworks_series_section_4_image_1.jpg",
        "label": "Section 4 Image 1",
        "max-width": 800,
        "info": "800px by 800px is recommended"
      },
      {
        "type": "image",
        "id": "philly_eyeworks_series_section_4_image_2.jpg",
        "label": "Section 4 Image 2",
        "max-width": 800,
        "info": "800px by 800px is recommended"
      },
      {
        "type": "text",
        "id": "philly_eyeworks_series_callout_2_title",
        "label": "Callout Section 2 Title"
      },
      {
        "type": "text",
        "id": "philly_eyeworks_series_callout_2_button_text",
        "label": "Callout Section 2 Button"
      },
      {
        "type": "text",
        "id": "philly_eyeworks_series_callout_2_button_url",
        "label": "Callout Section 2 URL"
      }
    ]
  },
  {
    "name": "Frame Crafters Frames Series Page",
    "settings": [
      {
        "type": "image",
        "id": "fc_frames_series_hero_image.jpg",
        "label": "Hero Image",
        "max-width": 2000,
        "info": "1700px by 600px is recommended"
      },
      {
        "type": "text",
        "id": "fc_frames_series_title",
        "label": "Title"
      },
      {
        "type": "textarea",
        "id": "fc_frames_series_title_description",
        "label": "Title Description"
      },
      {
        "type": "image",
        "id": "fc_frames_series_section_1_image_1.jpg",
        "label": "Section 1 Image 1",
        "max-width": 800,
        "info": "800px by 800px is recommended"
      },
      {
        "type": "image",
        "id": "fc_frames_series_section_1_image_2.jpg",
        "label": "Section 1 Image 2",
        "max-width": 800,
        "info": "800px by 800px is recommended"
      },
      {
        "type": "image",
        "id": "fc_frames_series_glasses_image.jpg",
        "label": "Glasses Image",
        "max-width": 1800,
        "info": "1800px by 500px is recommended"
      },
      {
        "type": "text",
        "id": "fc_frames_series_callout_1_title",
        "label": "Callout Section 1 Title"
      },
      {
        "type": "text",
        "id": "fc_frames_series_callout_1_button_text",
        "label": "Callout Section 1 Button"
      },
      {
        "type": "text",
        "id": "fc_frames_series_callout_1_button_url",
        "label": "Callout Section 1 URL"
      },
      {
        "type": "image",
        "id": "fc_frames_series_section_2_image_1.jpg",
        "label": "Section 2 Image",
        "max-width": 1500,
        "info": "1500px by 600px is recommended"
      },
      {
        "type": "image",
        "id": "fc_frames_series_section_3_image_1.jpg",
        "label": "Section 3 Image",
        "max-width": 1700,
        "info": "1700px by 600px is recommended"
      },
      {
        "type": "text",
        "id": "fc_frames_section_4_title",
        "label": "Section 4 Title"
      },
      {
        "type": "textarea",
        "id": "fc_frames_section_4_description",
        "label": "Section 4 Description"
      },
      {
        "type": "image",
        "id": "fc_frames_series_section_4_image_1.jpg",
        "label": "Section 4 Image 1",
        "max-width": 800,
        "info": "800px by 800px is recommended"
      },
      {
        "type": "image",
        "id": "fc_frames_series_section_4_image_2.jpg",
        "label": "Section 4 Image 2",
        "max-width": 800,
        "info": "800px by 800px is recommended"
      },
      {
        "type": "text",
        "id": "fc_frames_series_callout_2_title",
        "label": "Callout Section 2 Title"
      },
      {
        "type": "text",
        "id": "fc_frames_series_callout_2_button_text",
        "label": "Callout Section 2 Button"
      },
      {
        "type": "text",
        "id": "fc_frames_series_callout_2_button_url",
        "label": "Callout Section 2 URL"
      }
    ]
  },
  {
    "name": "Frame Crafters Sunwear Series Page",
    "settings": [
      {
        "type": "image",
        "id": "fc_sunwear_series_hero_image.jpg",
        "label": "Hero Image",
        "max-width": 2000,
        "info": "1700px by 600px is recommended"
      },
      {
        "type": "text",
        "id": "fc_sunwear_series_title",
        "label": "Title"
      },
      {
        "type": "textarea",
        "id": "fc_sunwear_series_title_description",
        "label": "Title Description"
      },
      {
        "type": "image",
        "id": "fc_sunwear_series_section_1_image_1.jpg",
        "label": "Section 1 Image 1",
        "max-width": 800,
        "info": "800px by 800px is recommended"
      },
      {
        "type": "image",
        "id": "fc_sunwear_series_section_1_image_2.jpg",
        "label": "Section 1 Image 2",
        "max-width": 800,
        "info": "800px by 800px is recommended"
      },
      {
        "type": "image",
        "id": "fc_sunwear_series_glasses_image.jpg",
        "label": "Glasses Image",
        "max-width": 1800,
        "info": "1800px by 500px is recommended"
      },
      {
        "type": "text",
        "id": "fc_sunwear_series_callout_1_title",
        "label": "Callout Section 1 Title"
      },
      {
        "type": "text",
        "id": "fc_sunwear_series_callout_1_button_text",
        "label": "Callout Section 1 Button"
      },
      {
        "type": "text",
        "id": "fc_sunwear_series_callout_1_button_url",
        "label": "Callout Section 1 URL"
      },
      {
        "type": "image",
        "id": "fc_sunwear_series_section_2_image_1.jpg",
        "label": "Section 2 Image",
        "max-width": 1500,
        "info": "1500px by 600px is recommended"
      },
      {
        "type": "image",
        "id": "fc_sunwear_series_section_3_image_1.jpg",
        "label": "Section 3 Image",
        "max-width": 1700,
        "info": "1700px by 600px is recommended"
      },
      {
        "type": "text",
        "id": "fc_sunwear_section_4_title",
        "label": "Section 4 Title"
      },
      {
        "type": "textarea",
        "id": "fc_sunwear_section_4_description",
        "label": "Section 4 Description"
      },
      {
        "type": "image",
        "id": "fc_sunwear_series_section_4_image_1.jpg",
        "label": "Section 4 Image 1",
        "max-width": 800,
        "info": "800px by 800px is recommended"
      },
      {
        "type": "image",
        "id": "fc_sunwear_series_section_4_image_2.jpg",
        "label": "Section 4 Image 2",
        "max-width": 800,
        "info": "800px by 800px is recommended"
      },
      {
        "type": "text",
        "id": "fc_sunwear_series_callout_2_title",
        "label": "Callout Section 2 Title"
      },
      {
        "type": "text",
        "id": "fc_sunwear_series_callout_2_button_text",
        "label": "Callout Section 2 Button"
      },
      {
        "type": "text",
        "id": "fc_sunwear_series_callout_2_button_url",
        "label": "Callout Section 2 URL"
      }
    ]
  },
  {
    "name": "Cart page",
    "settings": [
      {
        "type": "select",
        "id": "cart_type",
        "options": [
          {
            "value": "page",
            "label": "Page"
          },
          {
            "value": "drawer",
            "label": "Drawer"
          }
        ],
        "label": "Cart type"
      },
      {
        "type": "checkbox",
        "id": "cart_notes_enable",
        "label": "Enable order notes"
      }
    ]
  },
  {
    "name": "Newsletter",
    "settings": [
      {
        "type": "checkbox",
        "id": "footer_newsletter_enable",
        "label": "Show newsletter sign-up"
      },
      {
        "type": "text",
        "id": "newsletter_form_action",
        "label": "MailChimp form action URL",
        "info": "[Find your MailChimp form action URL](https:\/\/docs.shopify.com\/manual\/configuration\/store-customization\/communicating-with-customers\/accounts-and-newsletters\/get-a-mailchimp-form-action-url)."
      },
      {
        "type": "header",
        "content": "Newsletter Pop-Up"
      },
      {
        "type": "checkbox",
        "id": "newsletter_modal_enable",
        "label": "Show newsletter pop-up"
      },
      {
        "type": "text",
        "id": "newsletter_modal_title",
        "default": "Newsletter Sign Up"
      },
      {
        "type": "textarea",
        "id": "newsletter_modal_content",
        "default": "Sign Up for our newsletter to receive updates about products and current sales."
      }
    ]
  },
  {
    "name": "Social media",
    "settings": [
      {
        "type": "header",
        "content": "Accounts"
      },
      {
        "type": "text",
        "id": "social_facebook_link",
        "label": "Facebook",
        "info": "https:\/\/www.facebook.com\/shopify"
      },
      {
        "type": "text",
        "id": "social_twitter_link",
        "label": "Twitter",
        "info": "https:\/\/twitter.com\/shopify"
      },
      {
        "type": "text",
        "id": "social_pinterest_link",
        "label": "Pinterest",
        "info": "https:\/\/www.pinterest.com\/shopify"
      },
      {
        "type": "text",
        "id": "social_instagram_link",
        "label": "Instagram",
        "info": "https:\/\/instagram.com\/shopify"
      },
      {
        "type": "text",
        "id": "social_google_plus_link",
        "label": "Google plus",
        "info": "https:\/\/plus.google.com\/+shopify"
      },
      {
        "type": "text",
        "id": "social_tumblr_link",
        "label": "Tumblr",
        "info": "http:\/\/shopify.tumblr.com"
      },
      {
        "type": "text",
        "id": "social_youtube_link",
        "label": "Youtube",
        "info": "https:\/\/www.youtube.com\/user\/shopify"
      },
      {
        "type": "text",
        "id": "social_vimeo_link",
        "label": "Vimeo",
        "info": "https:\/\/vimeo.com\/shopify"
      },
      {
        "type": "text",
        "id": "social_fancy_link",
        "label": "Fancy",
        "info": "http:\/\/fancy.com\/Shopify"
      },
      {
        "type": "header",
        "content": "Sharing"
      },
      {
        "type": "checkbox",
        "id": "social_sharing_products",
        "label": "Enable product sharing"
      },
      {
        "type": "checkbox",
        "id": "social_sharing_blog",
        "label": "Enable blog post sharing"
      },
      {
        "type": "checkbox",
        "id": "share_facebook",
        "label": "Share on Facebook"
      },
      {
        "type": "checkbox",
        "id": "share_twitter",
        "label": "Tweet on Twitter"
      },
      {
        "type": "checkbox",
        "id": "share_pinterest",
        "label": "Pin on Pinterest"
      },
      {
        "type": "checkbox",
        "id": "share_fancy",
        "label": "Add to Fancy"
      },
      {
        "type": "checkbox",
        "id": "share_google",
        "label": "+1 on Google Plus"
      }
    ]
  }
]