{
  "current": {
    "color_body_bg": "#ffffff",
    "color_body_text": "#1c1d1d",
    "color_borders": "#1c1d1d",
    "color_primary": "#060606",
    "color_secondary": "#3386db",
    "color_product_background": "rgba(0,0,0,0)",
    "color_sale_tag": "#e95e0f",
    "color_input": "#f6f6f6",
    "color_newsletter": "#f6f6f6",
    "color_drawer_background": "#1c1d1d",
    "color_drawer_text": "#ffffff",
    "color_drawer_border": "#343535",
    "color_drawer_button": "#3386db",
    "color_drawer_button_text": "#ffffff",
    "type_header_family": "Google_Old+Standard+TT_400_serif",
    "type_header_base_size": "30px",
    "type_header_border_thickness": "1px",
    "type_accent_family": "Google_Montserrat_400_sans",
    "type_accent_transform": true,
    "type_accent_spacing": true,
    "type_base_family": "Google_Arapey_400_serif",
    "type_base_size": "17px",
    "type_base_italize_titles": true,
    "promo_code_header_enable": true,
    "promo_code_header_text": "Hurry! BOGO sunglasses ends",
    "promo_code_header_code": "5\/31\/17",
    "logo_use_image": false,
    "logo_use_inverted": false,
    "logo_max_width": "180",
    "favicon_enable": false,
    "home_section_1": "hero",
    "home_section_2": "home-content",
    "home_section_3": "featured-collections",
    "home_section_4": "featured-products",
    "hero_home_auto": false,
    "home_hero_auto_speed": "10000",
    "hero_slide_1_enable": false,
    "hero_slide_1_text_color": "is-light",
    "hero_slide_1_subheading": "FREE SHIPPING",
    "hero_slide_1_heading": "GET READY TO SEE SPRING",
    "hero_slide_1_cta": "Shop Now",
    "hero_slide_1_link": "\/pages\/frame-crafters-series",
    "hero_slide_2_enable": false,
    "hero_slide_2_text_color": "is-light",
    "hero_slide_2_subheading": "Choose your part of Philly history",
    "hero_slide_2_heading": "PHILLY EYE WORKS",
    "hero_slide_2_cta": "Shop Now",
    "hero_slide_2_link": "\/collections\/philly-eye-works",
    "hero_slide_3_enable": true,
    "hero_slide_3_text_color": "is-light",
    "hero_slide_3_subheading": "SCORE BONUS SHADES",
    "hero_slide_3_heading": "BUY ONE PAIR, GET ONE FREE!",
    "hero_slide_3_cta": "Shop Now",
    "hero_slide_3_link": "\/collections\/",
    "hero_slide_4_enable": false,
    "hero_slide_4_text_color": "is-light",
    "hero_slide_4_subheading": "YOUR EYES WILL",
    "hero_slide_4_heading": "THANK YOU",
    "hero_slide_4_cta": "Shop Now",
    "hero_slide_4_link": "\/collections\/",
    "hero_slide_5_enable": true,
    "hero_slide_5_text_color": "is-light",
    "hero_slide_5_subheading": "COME SEE HOW GOOD YOU'LL LOOK, JUST SAYIN'",
    "hero_slide_5_heading": "FREE SHIPPING, COMPLIMENTARY LENSES",
    "hero_slide_5_cta": "SHOP NOW",
    "hero_slide_5_link": "\/collections\/",
    "home_featured_collections_sort": "manual",
    "collection_1": "mens-frames",
    "collection_2": "womens-frames",
    "collection_3": "philly-eyeworks-frames",
    "collection_4": "philly-eyeworks-sunwear",
    "collection_5": "",
    "collection_6": "",
    "collection_7": "",
    "collection_8": "",
    "collection_9": "",
    "home_featured_products": "new-arrivals",
    "home_image_section_1_enable": true,
    "home_image_section_1_heading": "Go Ahead, Wear Them At Night",
    "home_image_section_1_subheading": "Get ready for fun in the sun and feel cool by the pool with our Summer Shades!",
    "home_image_section_1_button_text": "Shop Now",
    "home_image_section_1_button_link": "https:\/\/www.shopframecrafters.com\/pages\/frame-crafters-series",
    "home_image_section_2_enable": true,
    "home_image_section_2_heading": "Your New Favorite Glasses",
    "home_image_section_2_subheading": "Choose your glasses, enter your prescription, and add to cart.  It's that easy...  Did we mention complimentary lenses and free shipping?",
    "home_image_section_2_button_text": "Shop Now",
    "home_image_section_2_button_link": "\/pages\/frame-crafters-series-1",
    "home_image_section_3_enable": true,
    "home_image_section_3_heading": "Eye Care Professionals Directory",
    "home_image_section_3_subheading": "Looking for an eye care professional? Come meet our Partnered Doctors.",
    "home_image_section_3_button_text": "Learn More",
    "home_image_section_3_button_link": "\/pages\/eye-care-specialists",
    "home_image_section_4_enable": true,
    "home_image_section_4_heading": "Philly EyeWorks",
    "home_image_section_4_subheading": "Meet our friends, Philly EyeWorks – Hand made frames, custom colors, trusted partner. Perfect.",
    "home_image_section_4_button_text": "Shop Philly EyeWorks",
    "home_image_section_4_button_link": "\/collections\/philly-eye-works",
    "home_page_content": "frontpage",
    "product_zoom_enable": true,
    "list_collection_title": "All Frames",
    "list_collection_banner_enable": true,
    "collection_products_grid": "grid",
    "collection_tags_enable": false,
    "product_vendor_enable": false,
    "mens-frames-collection_banner_enable": true,
    "mens-sunwear-collection_banner_enable": true,
    "womens-frames-collection_banner_enable": true,
    "womens-sunwear-collection_banner_enable": true,
    "philly-eye-works-collection_banner_enable": true,
    "philly-eye-works-sunwear-collection_banner_enable": true,
    "about_banner_enable": true,
    "ecs_banner_enable": true,
    "ecs_description": "Frame Crafters represents a different kind of e-commerce platform. We offer fashionable frames at competitive prices along with pairing you with a trusted Eye Care Professionals. We believe this preserves the patient-doctor relationship and overall offers you a better shopping and eye care experience. See our eye care professionals below.",
    "ecs_fact_title_1": "Eye Care From A Source You Can Trust",
    "ecs_fact_description_1": "We strive to provide our customers and patients with the latest in fashionable eye wear at a convenient price.",
    "ecs_fact_title_2": "The Quality You Want and The Eye Care You Deserve",
    "ecs_fact_description_2": "We are working with eye care specialists to provide our customers with a better shopping and eye care experience.",
    "ecs_fact_title_3": "Work With One of Our Doctors",
    "ecs_fact_description_3": "Check out our list of trusted professionals to help you with your new Frame Crafters frames.",
    "pew_banner_enable": true,
    "philly_eyeworks_description_section_1": "Philly Eyeworks is a new brand of eyewear that celebrates individuality and diversity. Our exclusive collection offers an eclectic array of shapes coupled with an almost endless possibility of color options, so Philly Eyeworks are exactly as wild or subdued as you are (or want to be!).",
    "pew_button_enable": true,
    "pew_button_text": "Shop Philly Eyeworks",
    "pew_button_link": "\/collections\/philly-eye-works",
    "pew_eyeworks_create_your_own_section_enable": true,
    "pew_create_number_1": "17",
    "pew_create_title_1": "Front Colors",
    "pew_create_number_2": "11",
    "pew_create_title_2": "Temple Colors",
    "pew_create_number_3": "2",
    "pew_create_title_3": "Finishes",
    "pew_create_number_4": "394",
    "pew_create_title_4": "Custom Possibilities",
    "pew_eyeworks_section_images_enable": true,
    "philly_eyeworks_description_section_2": "Philly EyeWorks frames are assembled in our Philadelphia workshop. We design our frames in Philly, color ‘em in Philly, and sandblast ‘em in Philly. Customers can expect slight variances in the colors because each frame is colored individually, by hand, making each pair of Philly EyeWorks a one-of-a-kind work of art.",
    "philly_eyeworks_series_title": "IF YOU LIKE WARBY - YOU'LL LOVE PHILLY EYEWORKS",
    "philly_eyeworks_series_title_description": "Warby, we like your shapes but we want more color. \r\n\r\n Checkout Philly EyeWorks, an eyewear brand that takes individuality to a whole new level with a fresh, slightly offbeat style. \r\n\r\n\r\n This exclusive collection offers an array of shapes coupled with an almost endless possibility of color options, so Philly EyeWorks are exactly as wild or subdued as you are...or want to be.",
    "philly_eyeworks_series_callout_1_title": "Shop Our Collection of Philly Eyeworks",
    "philly_eyeworks_series_callout_1_button_text": "Check Them Out",
    "philly_eyeworks_series_callout_1_button_url": "\/collections\/philly-eye-works",
    "philly_eyeworks_section_4_title": "More About Philly Eyeworks",
    "philly_eyeworks_section_4_description": "Philly EyeWorks frames are assembled in our Philadelphia workshop. We design our frames in Philly, color ‘em in Philly, and sandblast ‘em in Philly. Customers can expect slight variances in the colors because each frame is colored individually, by hand, making each pair of Philly EyeWorks a one-of-a-kind work of art.",
    "philly_eyeworks_series_callout_2_title": "Want Philly EyeWorks Sunwear?",
    "philly_eyeworks_series_callout_2_button_text": "Shop Now!",
    "philly_eyeworks_series_callout_2_button_url": "\/collections\/philly-eyeworks-sunwear",
    "fc_frames_series_title": "The Frame Crafters Frames",
    "fc_frames_series_title_description": "We are pioneers in the eye care industry. We have several generations of certified eye care professionals. We work diligently everyday to provide the best quality eye care possible.",
    "fc_frames_series_callout_1_title": "Shop Our Collection of Mens Frames",
    "fc_frames_series_callout_1_button_text": "Shop Now",
    "fc_frames_series_callout_1_button_url": "\/collections\/mens-frames",
    "fc_frames_section_4_title": "Crafted from the best materials",
    "fc_frames_section_4_description": "Dedication to excellent care and providing our customers with the best service is our life’s work.",
    "fc_frames_series_callout_2_title": "Shop Our Collection of Womens Frames",
    "fc_frames_series_callout_2_button_text": "Shop Now",
    "fc_frames_series_callout_2_button_url": "\/collections\/womens-frames",
    "fc_sunwear_series_title": "Frame Crafters Sunwear",
    "fc_sunwear_series_title_description": "Your best summer accessory!",
    "fc_sunwear_series_callout_1_title": "Shop our womens sunwear collection",
    "fc_sunwear_series_callout_1_button_text": "See More",
    "fc_sunwear_series_callout_1_button_url": "\/collections\/womens-sunwear",
    "fc_sunwear_section_4_title": "Crafted from the best materials",
    "fc_sunwear_section_4_description": "We work diligently everyday to provide the best quality eye care possible.",
    "fc_sunwear_series_callout_2_title": "Check Out Our Mens Sunwear",
    "fc_sunwear_series_callout_2_button_text": "Check It Out",
    "fc_sunwear_series_callout_2_button_url": "\/collections\/mens-sunwear",
    "cart_type": "page",
    "cart_notes_enable": false,
    "footer_newsletter_enable": true,
    "newsletter_form_action": "\/\/shopframecrafters.us14.list-manage.com\/subscribe\/post?u=7ffc3e1c31d016623fe25ab74&amp;id=efe67c23bf",
    "newsletter_modal_enable": false,
    "newsletter_modal_title": "Receive $10 Off Your Next Purchase",
    "newsletter_modal_content": "Sign up to our mailing list and recieve an email for $10 off your next purchase.",
    "social_facebook_link": "https:\/\/www.facebook.com\/ShopFrameCrafters\/",
    "social_twitter_link": "https:\/\/twitter.com\/Frame_Crafters",
    "social_pinterest_link": "https:\/\/www.pinterest.com\/shopframecraft\/",
    "social_instagram_link": "https:\/\/www.instagram.com\/shopframecrafters\/?hl=en",
    "social_google_plus_link": "https:\/\/plus.google.com\/u\/1\/b\/100294609120787398284",
    "social_tumblr_link": "",
    "social_youtube_link": "",
    "social_vimeo_link": "",
    "social_fancy_link": "",
    "social_sharing_products": true,
    "social_sharing_blog": true,
    "share_facebook": true,
    "share_twitter": true,
    "share_pinterest": true,
    "share_fancy": true,
    "share_google": true,
    "checkout_header_image": "",
    "checkout_use_storefront_logo": false,
    "checkout_logo_image": "",
    "checkout_logo_position": "left",
    "checkout_logo_size": "medium",
    "checkout_body_background_image": "",
    "checkout_body_background_color": "#fff",
    "checkout_input_background_color_mode": "white",
    "checkout_sidebar_background_image": "",
    "checkout_sidebar_background_color": "#fafafa",
    "checkout_heading_font": "Helvetica Neue",
    "checkout_body_font": "Helvetica Neue",
    "checkout_accent_color": "#c7ac7f",
    "checkout_button_color": "#000000",
    "checkout_error_color": "#ff6d6d",
    "checkout_use_header_image": false,
    "checkout_logo": "",
    "checkout_use_body_background_image": false,
    "checkout_use_sidebar_background_image": false,
    ".ecs_section_3_title": "Trusted Professionals",
    "philly_eyeworks_series_callout_1_button URL": "\/collections\/philly-eye-works",
    "philly_eyeworks_series_callout_2_button URL": "\/collections\/philly-eyeworks-sunwear",
    "philly-collection_1": "philly-eye-works",
    "collection_banner_enable": true,
    "checkout_banner_background_color": "#fff",
    "checkout_call_to_action_color": "#c7ac7f",
    "collection_sort_enable": false,
    "customer_layout": "customer_area",
    "footer_quicklinks_enable": true,
    "home_featured_products_grid": "collage",
    "social_sharing_style": "clean",
    "content_for_index": []
  },
  "presets": {
    "Brooklyn": {
      "cart_type": "drawer",
      "cart_notes_enable": false,
      "checkout_accent_color": "#c7ac7f",
      "checkout_banner_background_color": "#fff",
      "checkout_button_color": "#000000",
      "checkout_call_to_action_color": "#c7ac7f",
      "checkout_use_header_image": false,
      "collection_products_grid": "collage",
      "collection_sort_enable": false,
      "collection_tags_enable": true,
      "color_body_bg": "#ffffff",
      "color_body_text": "#1c1d1d",
      "color_borders": "#1c1d1d",
      "color_drawer_background": "#1c1d1d",
      "color_drawer_border": "#343535",
      "color_drawer_button": "#c7ac7f",
      "color_drawer_button_text": "#ffffff",
      "color_drawer_text": "#ffffff",
      "color_input": "#f6f6f6",
      "color_newsletter": "#f6f6f6",
      "color_primary": "#1c1d1d",
      "color_product_background": "#f7f7f7",
      "color_sale_tag": "#990000",
      "color_secondary": "#c7ac7f",
      "customer_layout": "customer_area",
      "favicon_enable": false,
      "footer_newsletter_enable": true,
      "footer_quicklinks_enable": true,
      "hero_home_auto": true,
      "hero_slide_1_cta": "Shop now",
      "hero_slide_1_enable": true,
      "hero_slide_1_heading": "Hero Banner",
      "hero_slide_1_link": "\/collections\/",
      "hero_slide_1_subheading": "An introductory",
      "hero_slide_1_text_color": "is-dark",
      "hero_slide_2_enable": false,
      "hero_slide_2_text_color": "is-dark",
      "hero_slide_3_enable": false,
      "hero_slide_3_text_color": "is-dark",
      "hero_slide_4_enable": false,
      "hero_slide_4_text_color": "is-dark",
      "hero_slide_5_enable": false,
      "hero_slide_5_text_color": "is-dark",
      "home_featured_collections_sort": "auto",
      "home_featured_products": "frontpage",
      "home_featured_products_grid": "collage",
      "home_hero_auto_speed": "7000",
      "home_page_content": "frontpage",
      "home_section_1": "hero",
      "home_section_2": "home-content",
      "home_section_3": "featured-collections",
      "home_section_4": "featured-products",
      "logo_max_width": "180",
      "logo_use_image": false,
      "logo_use_inverted": false,
      "product_vendor_enable": false,
      "product_zoom_enable": true,
      "share_facebook": true,
      "share_fancy": true,
      "share_google": true,
      "share_pinterest": true,
      "share_twitter": true,
      "social_sharing_blog": true,
      "social_sharing_products": true,
      "social_sharing_style": "clean",
      "type_accent_family": "Google_Montserrat_400_sans",
      "type_accent_spacing": true,
      "type_accent_transform": true,
      "type_base_family": "Google_Arapey_400_serif",
      "type_base_italize_titles": true,
      "type_base_size": "16px",
      "type_header_base_size": "30px",
      "type_header_border_thickness": "1px",
      "type_header_family": "Google_Old+Standard+TT_400_serif"
    }
  }
}